Division,WeightClassKg,Place,Name,Team,BodyweightKg,Best3SquatKg,Best3BenchKg,Best3DeadliftKg,TotalKg,Equipment,Event,Sex
Boys,52,1,Jose Garcia,Brownfield,49.8,97.52,70.31,122.47,290.3,Single-ply,SBD,M
Boys,52,2,Juan Duran,Lubbock Cooper,41.64,81.65,43.09,90.72,215.46,Single-ply,SBD,M
Boys,52,DQ,Joseph Hernandez,Sundown,51.26,,,,,Single-ply,SBD,M
Boys,56,1,Brett Salas,Lubbock Cooper,54.79,156.49,74.84,163.29,394.63,Single-ply,SBD,M
Boys,56,2,Landon Morgan,Sundown,55.79,129.27,74.84,142.88,347,Single-ply,SBD,M
Boys,56,3,Dusty Rowcliffe,Lubbock Roosevelt,53.89,97.52,70.31,117.93,285.76,Single-ply,SBD,M
Boys,60,1,Cailer Woolam,Lubbock Cooper,59.87,142.88,86.18,170.1,399.16,Single-ply,SBD,M
Boys,60,2,Zack Gass,Lubbock Cooper,58.88,138.35,86.18,161.03,385.55,Single-ply,SBD,M
Boys,60,3,Markee Rodriguez,Brownfield,59.87,149.69,95.25,140.61,385.55,Single-ply,SBD,M
Boys,60,4,Paul Bright,Brownfield,58.88,142.88,74.84,149.69,367.41,Single-ply,SBD,M
Boys,60,5,Ruben Sanchez,Meadow,59.87,113.4,74.84,154.22,342.46,Single-ply,SBD,M
Boys,60,6,Jonathan Flores,Meadow,57.97,131.54,63.5,142.88,337.93,Single-ply,SBD,M
Boys,60,7,Chris Mendez,Lubbock Roosevelt,59.33,124.74,74.84,136.08,335.66,Single-ply,SBD,M
Boys,60,8,Rhett Wilkes,Sundown,57.97,108.86,77.11,117.93,303.91,Single-ply,SBD,M
Boys,60,9,Shelby Skaggs,Brownfield,56.25,113.4,70.31,117.93,301.64,Single-ply,SBD,M
Boys,60,10,Justyn Williams,Tahoka,59.87,111.13,70.31,117.93,299.37,Single-ply,SBD,M
Boys,60,11,Brayan Jacquez,Sundown,59.87,106.59,54.43,133.81,294.84,Single-ply,SBD,M
Boys,60,DQ,Justin Forsythe,Tahoka,60,,,,,Single-ply,SBD,M
Boys,67.5,1,Michael Prieto,Lubbock Cooper,66.59,170.1,99.79,183.7,453.59,Single-ply,SBD,M
Boys,67.5,2,Julian Paiz,Sundown,64.77,165.56,95.25,172.37,433.18,Single-ply,SBD,M
Boys,67.5,3,Nick Aguirre,Tahoka,65.77,165.56,115.67,149.69,430.91,Single-ply,SBD,M
Boys,67.5,4,Adrien Martinez,Brownfield,63.41,140.61,88.45,151.95,381.02,Single-ply,SBD,M
Boys,67.5,5,Trystan Hilger,Tahoka,67.13,136.08,102.06,142.88,381.02,Single-ply,SBD,M
Boys,67.5,6,Joseph Quevedo,Lubbock Roosevelt,67.13,127.01,92.99,156.49,376.48,Single-ply,SBD,M
Boys,67.5,7,Luke Hawthorne,Tahoka,66.68,131.54,83.91,133.81,349.27,Single-ply,SBD,M
Boys,67.5,8,Andrew Castillo,Meadow,63.41,117.93,70.31,136.08,324.32,Single-ply,SBD,M
Boys,67.5,9,Cesar Retana,Meadow,65.32,122.47,61.23,136.08,319.78,Single-ply,SBD,M
Boys,67.5,10,Keagan Daniel,Lubbock Roosevelt,62.14,113.4,63.5,140.61,317.51,Single-ply,SBD,M
Boys,67.5,11,Kordell Baker,Tahoka,64.77,108.86,77.11,120.2,306.17,Single-ply,SBD,M
Boys,67.5,12,Bj Trevino,Lubbock Cooper,65.68,127.01,56.7,122.47,306.17,Single-ply,SBD,M
Boys,67.5,13,Nathan Vasquez,Lubbock Cooper,66.13,102.06,56.7,131.54,290.3,Single-ply,SBD,M
Boys,67.5,14,Mikey Pesina,Lubbock Roosevelt,61.14,99.79,74.84,102.06,276.69,Single-ply,SBD,M
Boys,75,1,Kyle Reno,Tahoka,74.39,183.7,124.74,213.19,521.63,Single-ply,SBD,M
Boys,75,2,Jamie Bingham,Tahoka,74.84,204.12,113.4,195.04,512.56,Single-ply,SBD,M
Boys,75,3,Randy Zamora,Meadow,72.57,181.44,120.2,197.31,498.95,Single-ply,SBD,M
Boys,75,4,Roland Zamora,Meadow,74.75,181.44,104.33,188.24,474,Single-ply,SBD,M
Boys,75,5,Robby Escobar,Sundown,68.49,172.37,83.91,154.22,410.5,Single-ply,SBD,M
Boys,75,6,Luis Torrez,Meadow,72.57,158.76,92.99,154.22,405.97,Single-ply,SBD,M
Boys,75,7,Rafael Urias,Meadow,73.94,151.95,81.65,138.35,371.95,Single-ply,SBD,M
Boys,75,8,Colton Barclay,Meadow,72.57,138.35,77.11,151.95,367.41,Single-ply,SBD,M
Boys,75,9,Jacob Bray,Sundown,74.84,124.74,72.57,131.54,328.85,Single-ply,SBD,M
Boys,75,10,Ethan Carrell,Lubbock Roosevelt,68.49,117.93,70.31,136.08,324.32,Single-ply,SBD,M
Boys,82.5,1,Bryan Vela,Meadow,82.1,235.87,138.35,249.48,623.69,Single-ply,SBD,M
Boys,82.5,2,Devin Elmore,Sundown,81.1,204.12,104.33,149.69,458.13,Single-ply,SBD,M
Boys,82.5,3,Adrian Soto,Meadow,76.2,151.95,97.52,185.97,435.45,Single-ply,SBD,M
Boys,82.5,4,Tim Rodriguez,Sundown,77.02,154.22,81.65,176.9,412.77,Single-ply,SBD,M
Boys,82.5,5,Bryce McHam,Sundown,80.74,149.69,99.79,151.95,401.43,Single-ply,SBD,M
Boys,82.5,6,Bradley Castillon,Tahoka,78.38,145.15,92.99,142.88,381.02,Single-ply,SBD,M
Boys,82.5,7,Victor Rodriguez,Lubbock Roosevelt,76.2,136.08,90.72,145.15,371.95,Single-ply,SBD,M
Boys,82.5,8,Jake Stoker,Lubbock Cooper,82.01,106.59,65.77,124.74,297.1,Single-ply,SBD,M
Boys,82.5,DQ,Pete Munoz,Brownfield,77.93,,,,,Single-ply,SBD,M
Boys,90,1,Fili Jaquez,Lubbock Cooper,88.45,219.99,138.35,215.46,573.79,Single-ply,SBD,M
Boys,90,2,Tim Bergara,Brownfield,89.36,204.12,145.15,204.12,553.38,Single-ply,SBD,M
Boys,90,3,Montana Vega,Lubbock Cooper,88.36,179.17,108.86,190.51,478.54,Single-ply,SBD,M
Boys,90,4,Julian Hernandez,Lubbock Roosevelt,87.54,145.15,95.25,170.1,410.5,Single-ply,SBD,M
Boys,90,5,Jeff Smith,Lubbock Roosevelt,87,136.08,104.33,147.42,387.82,Single-ply,SBD,M
Boys,90,6,Isaac Rodriguez,Lubbock Roosevelt,82.46,127.01,83.91,149.69,360.61,Single-ply,SBD,M
Boys,90,7,Brady McClellen,Lubbock Cooper,82.55,138.35,79.38,140.61,358.34,Single-ply,SBD,M
Boys,100,1,Daniel Carmona,Brownfield,97.07,190.51,106.59,208.65,505.76,Single-ply,SBD,M
Boys,100,2,Sammy Sambrano,Brownfield,94.35,183.7,113.4,176.9,474,Single-ply,SBD,M
Boys,100,3,Andrew Clayman,Brownfield,98.43,188.24,111.13,158.76,458.13,Single-ply,SBD,M
Boys,100,4,Justin Chavez,Sundown,92.44,163.29,88.45,154.22,405.97,Single-ply,SBD,M
Boys,100,DQ,Spencer Chance,Sundown,91.94,,,,,Single-ply,SBD,M
Boys,110,1,John Ryan Barrientez,Tahoka,108.86,181.44,106.59,174.63,462.66,Single-ply,SBD,M
Boys,110,2,Caelan Decker,Tahoka,109.77,156.49,115.67,163.29,435.45,Single-ply,SBD,M
Boys,110,3,Daniel Rivera,Lubbock Roosevelt,104.69,156.49,90.72,167.83,415.04,Single-ply,SBD,M
Boys,110,4,Jim Trevino,Lubbock Roosevelt,106.96,154.22,83.91,174.63,412.77,Single-ply,SBD,M
Boys,110,5,Efrain Ramirez,Tahoka,109.23,136.08,79.38,151.95,367.41,Single-ply,SBD,M
Boys,110,DQ,Joey Elizardo,Brownfield,109.77,238.14,158.76,,,Single-ply,SBD,M
Boys,125,1,Micheal Johnson,Lubbock Cooper,115.12,201.85,124.74,199.58,526.17,Single-ply,SBD,M
Boys,125,2,Eric Garcia,Lubbock Roosevelt,123.83,199.58,117.93,190.51,508.02,Single-ply,SBD,M
Boys,125,3,Riley Thompson,Sundown,117.03,165.56,104.33,181.44,451.32,Single-ply,SBD,M
Boys,125,4,Jonathan Aguilar,Lubbock Roosevelt,113.76,129.27,86.18,127.01,342.46,Single-ply,SBD,M
Boys,125,DQ,Mike Perez,Brownfield,121.25,,,,,Single-ply,SBD,M
Boys,125+,1,Dillon Beesinger,Lubbock Cooper,138.35,265.35,167.83,210.92,644.1,Single-ply,SBD,M
Boys,125+,DQ,Garrett McCarty,Lubbock Roosevelt,151.05,,,,,Single-ply,SBD,M
