Division,WeightClassKg,Place,Name,Team,BodyweightKg,Best3SquatKg,Best3BenchKg,Best3DeadliftKg,TotalKg,Equipment,Event,Sex
Boys,52,1,Johnny Gomez,Rocksprings,50.39,142.88,83.91,136.08,362.87,Single-ply,SBD,M
Boys,52,2,George Garcia,San Antonio Memorial,50.48,124.74,72.57,136.08,333.39,Single-ply,SBD,M
Boys,52,3,Marc Jaquez,Uvalde,47.22,111.13,63.5,117.93,292.57,Single-ply,SBD,M
Boys,56,1,Colton Bean,Devine,55.11,131.54,79.38,154.22,365.14,Single-ply,SBD,M
Boys,56,2,Christian Campos,Uvalde,55.07,131.54,72.57,142.88,347,Single-ply,SBD,M
Boys,56,3,Lorenzo Barfield,San Antonio Southwest,54.93,131.54,72.57,140.61,344.73,Single-ply,SBD,M
Boys,56,4,Vincente Villanueva,Floresville,55.11,124.74,72.57,147.42,344.73,Single-ply,SBD,M
Boys,56,5,Maximus Perez,Lytle,54.79,113.4,65.77,131.54,310.71,Single-ply,SBD,M
Boys,60,1,Demetrios Monreal,Devine,58.97,147.42,90.72,154.22,392.36,Single-ply,SBD,M
Boys,67.5,1,Diego Perez #1,Rocksprings,66.09,192.78,124.74,190.51,508.02,Single-ply,SBD,M
Boys,67.5,2,Stephen Garza,Lytle,66.27,183.7,99.79,213.19,496.68,Single-ply,SBD,M
Boys,67.5,3,Joseph Lopez,Lytle,67.13,163.29,108.86,201.85,474,Single-ply,SBD,M
Boys,67.5,4,Kevin Hernandez,Floresville,60.28,188.24,113.4,170.1,471.74,Single-ply,SBD,M
Boys,67.5,5,Angel Cordova,Rocksprings,63.87,192.78,111.13,165.56,469.47,Single-ply,SBD,M
Boys,67.5,6,Jose Fargason,Devine,67,172.37,108.86,185.97,467.2,Single-ply,SBD,M
Boys,67.5,7,Luke Torres,Devine,61.69,176.9,108.86,176.9,462.66,Single-ply,SBD,M
Boys,67.5,8,David Ortega,Lytle,65.63,158.76,97.52,206.38,462.66,Single-ply,SBD,M
Boys,67.5,9,Jacob Gonzales,Floresville,61.28,170.1,90.72,165.56,426.38,Single-ply,SBD,M
Boys,67.5,10,Devin Valdez,Castroville Medina Valley,62.82,145.15,92.99,170.1,408.23,Single-ply,SBD,M
Boys,67.5,11,Marco Burkman-Flaig,San Antonio Cole,64.23,142.88,83.91,149.69,376.48,Single-ply,SBD,M
Boys,67.5,12,Paco Ramirez,Rocksprings,62.82,138.35,83.91,149.69,371.95,Single-ply,SBD,M
Boys,67.5,13,David Elizondo,Castroville Medina Valley,65.54,131.54,74.84,149.69,356.07,Single-ply,SBD,M
Boys,67.5,14,Abraham Davila,Uvalde,60.37,113.4,58.97,120.2,292.57,Single-ply,SBD,M
Boys,67.5,DQ,Josh Valenzuela,Castroville Medina Valley,65.27,145.15,,,,Single-ply,SBD,M
Boys,75,1,Luke Janosky,Castroville Medina Valley,71.89,226.8,115.67,215.46,557.92,Single-ply,SBD,M
Boys,75,2,Cristino Garcia,San Antonio Kennedy,69.26,199.58,115.67,210.92,526.17,Single-ply,SBD,M
Boys,75,3,Jacob Meis,Castroville Medina Valley,70.49,208.65,127.01,190.51,526.17,Single-ply,SBD,M
Boys,75,4,Johnnyh Salinas,San Antonio Memorial,72.85,176.9,106.59,199.58,483.08,Single-ply,SBD,M
Boys,75,5,Juan Flores,Rocksprings,70.76,170.1,102.06,206.38,478.54,Single-ply,SBD,M
Boys,75,6,Josiah Carrizalez,Uvalde,74.39,147.42,86.18,233.6,467.2,Single-ply,SBD,M
Boys,75,7,Noah Smith,Uvalde,69.54,183.7,90.72,188.24,462.66,Single-ply,SBD,M
Boys,75,8,Garrett Ralph,Lytle,72.67,176.9,104.33,172.37,453.59,Single-ply,SBD,M
Boys,75,9,Tim Haller,San Antonio Southwest,74.62,163.29,111.13,158.76,433.18,Single-ply,SBD,M
Boys,75,10,Elijah Galindo,Uvalde,73.48,106.59,88.45,183.7,378.75,Single-ply,SBD,M
Boys,75,11,Jeremy Martinez,Castroville Medina Valley,71.99,117.93,81.65,142.88,342.46,Single-ply,SBD,M
Boys,75,12,Isaiah LaDuron,San Antonio Cole,68.4,127.01,65.77,138.35,331.12,Single-ply,SBD,M
Boys,75,DQ,Nick Gonzales,Floresville,72.85,,,,,Single-ply,SBD,M
Boys,75,DQ,Lucas Byrd,Devine,74.34,208.65,,,,Single-ply,SBD,M
Boys,82.5,1,Adrian Sustaita,Castroville Medina Valley,82.1,244.94,136.08,240.4,621.42,Single-ply,SBD,M
Boys,82.5,2,Raziel Galindo,Rocksprings,78.43,219.99,142.88,235.87,598.74,Single-ply,SBD,M
Boys,82.5,3,Edward Keirstead,San Antonio Southwest,80.15,226.8,129.27,192.78,548.85,Single-ply,SBD,M
Boys,82.5,4,Steban Mireles,Castroville Medina Valley,80.01,208.65,122.47,213.19,544.31,Single-ply,SBD,M
Boys,82.5,5,Andrew Garza,Castroville Medina Valley,75.89,222.26,113.4,204.12,539.77,Single-ply,SBD,M
Boys,82.5,6,Zach Whitley,Castroville Medina Valley,81.24,204.12,124.74,204.12,532.97,Single-ply,SBD,M
Boys,82.5,7,Joseph Perez,Lytle,82.1,199.58,117.93,190.51,508.02,Single-ply,SBD,M
Boys,82.5,8,Nicholas Propst,San Antonio Southwest,80.29,183.7,113.4,183.7,480.81,Single-ply,SBD,M
Boys,82.5,9,Isaac Santos,Castroville Medina Valley,77.66,165.56,104.33,170.1,439.98,Single-ply,SBD,M
Boys,82.5,10,Matt Moore,San Antonio Cole,77.25,154.22,97.52,154.22,405.97,Single-ply,SBD,M
Boys,82.5,DQ,Dakota Wofford,Devine,79.56,172.37,133.81,,,Single-ply,SBD,M
Boys,82.5,DQ,Cristian Benavente,San Antonio Southwest,79.2,,,,,Single-ply,SBD,M
Boys,90,1,Hagen Brown,Floresville,89.54,249.48,151.95,233.6,635.03,Single-ply,SBD,M
Boys,90,2,Austin Felan,Devine,88.63,213.19,145.15,190.51,548.85,Single-ply,SBD,M
Boys,90,3,Antonio Ortega,Hondo,84.28,124.74,102.06,167.83,394.63,Single-ply,SBD,M
Boys,90,4,Kaleb Roberts,Floresville,87.27,124.74,90.72,161.03,376.48,Single-ply,SBD,M
Boys,90,DQ,DeAndre Harden,Lytle,88.09,,,,,Single-ply,SBD,M
Boys,100,1,John Cordova,Rocksprings,91.35,274.42,165.56,226.8,666.78,Single-ply,SBD,M
Boys,100,2,Mateo Garcia,San Antonio Memorial,98.25,278.96,138.35,233.6,650.91,Single-ply,SBD,M
Boys,100,3,Manuel Valverde,San Antonio Memorial,99.02,201.85,140.61,197.31,539.77,Single-ply,SBD,M
Boys,100,4,Patrick Rhodes,San Antonio Cole,90.36,195.04,131.54,190.51,517.1,Single-ply,SBD,M
Boys,100,5,Diego Hernandez,Devine,95.16,183.7,95.25,165.56,444.52,Single-ply,SBD,M
Boys,100,6,George Garza,Uvalde,95.53,124.74,68.04,142.88,335.66,Single-ply,SBD,M
Boys,100,7,Paul Zertuche,Castroville Medina Valley,91.94,92.99,68.04,97.52,258.55,Single-ply,SBD,M
Boys,100,DQ,Christian Hernandez,Devine,96.21,183.7,92.99,,,Single-ply,SBD,M
Boys,110,1,Jacob Thomas,Floresville,109.77,272.16,145.15,199.58,616.89,Single-ply,SBD,M
Boys,110,2,Matthew Williams,Uvalde,100.97,229.06,120.2,183.7,532.97,Single-ply,SBD,M
Boys,110,3,Sammy Lara,Uvalde,109.27,163.29,88.45,183.7,435.45,Single-ply,SBD,M
Boys,110,DQ,Francisco Uhl,San Antonio Southwest,104.69,163.29,145.15,,,Single-ply,SBD,M
Boys,110,DQ,Manuel Cruz,San Antonio Kennedy,105.64,188.24,,,,Single-ply,SBD,M
Boys,125,1,Austin Soto,Devine,123.51,283.5,213.19,256.28,752.96,Single-ply,SBD,M
Boys,125,2,Jorge Flores,San Antonio Memorial,118.16,267.62,136.08,240.4,644.1,Single-ply,SBD,M
Boys,125,3,Jason Carrillo,Rocksprings,110.36,240.4,147.42,204.12,591.94,Single-ply,SBD,M
Boys,125,4,Dylan Carroll,Castroville Medina Valley,117.71,235.87,145.15,208.65,589.67,Single-ply,SBD,M
Boys,125,5,Jose Murillo,San Antonio Southwest,116.07,215.46,120.2,204.12,539.77,Single-ply,SBD,M
Boys,125,6,George Lockamy,Floresville,117.3,215.46,117.93,204.12,537.51,Single-ply,SBD,M
Boys,125,7,Christian Adame,San Antonio Southwest,120.7,190.51,117.93,226.8,535.24,Single-ply,SBD,M
Boys,125,8,Juan Jose Perez,Lytle,115.89,226.8,111.13,183.7,521.63,Single-ply,SBD,M
Boys,125,9,Symon Alvarez,San Antonio Southwest,113.26,183.7,133.81,197.31,514.83,Single-ply,SBD,M
Boys,125,10,Ralph Hernandez,Uvalde,121.11,192.78,111.13,183.7,487.61,Single-ply,SBD,M
Boys,125,11,Johah Barron,Castroville Medina Valley,120.88,170.1,129.27,165.56,464.93,Single-ply,SBD,M
Boys,125,12,Andrew Romero,San Antonio Kennedy,122.47,142.88,133.81,165.56,442.25,Single-ply,SBD,M
Boys,125,DQ,Christian Arredondo,Devine,115.62,,,,,Single-ply,SBD,M
Boys,125+,1,Joseph Peña #1,San Antonio Holy Cross,157.22,410.5,229.06,281.23,920.79,Single-ply,SBD,M
Boys,125+,2,Odie De La Rosa,Castroville Medina Valley,146.83,285.76,181.44,233.6,700.8,Single-ply,SBD,M
Boys,125+,3,Mike Kessler,Castroville Medina Valley,147.6,294.84,149.69,210.92,655.44,Single-ply,SBD,M
Boys,125+,4,Fred Enriquez,Rocksprings,148.14,260.82,151.95,206.38,619.15,Single-ply,SBD,M
Boys,125+,5,Kevin Kel Toro,San Antonio Kennedy,129.5,217.72,102.06,208.65,528.44,Single-ply,SBD,M
Boys,125+,6,Ernesto Moreno,Castroville Medina Valley,144.79,192.78,140.61,174.63,508.02,Single-ply,SBD,M
Boys,125+,DQ,Moses Flores,Castroville Medina Valley,131.41,190.51,140.61,,,Single-ply,SBD,M
Boys,125+,DQ,Luis Cantu,Hondo,126.46,206.38,102.06,,,Single-ply,SBD,M
