Division,WeightClassKg,Place,Name,Team,BodyweightKg,Best3SquatKg,Best3BenchKg,Best3DeadliftKg,TotalKg,Equipment,Event,Sex
Boys,52,1,Barrett Hubbard,Moody,49.9,88.45,49.9,106.59,244.94,Single-ply,SBD,M
Boys,56,1,Philip Sharp,Robinson,54.52,122.47,90.72,142.88,356.07,Single-ply,SBD,M
Boys,60,1,Scott Fox,Robinson,58.42,102.06,68.04,113.4,283.5,Single-ply,SBD,M
Boys,60,2,Luke Krumnow,Rosebud-Lott,58.69,,,111.13,111.13,Single-ply,D,M
Boys,67.5,1,Isaac Garcia,Riesel,63.23,95.25,72.57,106.59,274.42,Single-ply,SBD,M
Boys,75,1,Aaron Osborne,McGregor,69.58,145.15,92.99,142.88,381.02,Single-ply,SBD,M
Boys,75,2,Tristan Hewitt,Robinson,71.3,124.74,88.45,131.54,344.73,Single-ply,SBD,M
Boys,75,3,Dalton Boeche,Riesel,73.21,140.61,,147.42,288.03,Single-ply,SD,M
Boys,75,4,Caleb Browder,McGregor,72.48,122.47,,136.08,258.55,Single-ply,SD,M
Boys,75,5,John Griffin,Riesel,68.04,102.06,,79.38,181.44,Single-ply,SD,M
Boys,82.5,1,Ben Roberson,Robinson,80.83,174.63,111.13,183.7,469.47,Single-ply,SBD,M
Boys,82.5,2,Joanly Martinez,McGregor,77.11,147.42,108.86,163.29,419.57,Single-ply,SBD,M
Boys,82.5,3,Noah Jenkins,McGregor,77.38,149.69,86.18,163.29,399.16,Single-ply,SBD,M
Boys,82.5,4,Cooper Wagenschein,Robinson,77.38,145.15,77.11,154.22,376.48,Single-ply,SBD,M
Boys,82.5,5,Joshua Gunn,Robinson,81.37,147.42,88.45,136.08,371.95,Single-ply,SBD,M
Boys,82.5,6,Matthew Bodnar,Moody,77.66,127.01,83.91,117.93,328.85,Single-ply,SBD,M
Boys,82.5,7,Dakota Vasquez,Moody,76.66,108.86,72.57,120.2,301.64,Single-ply,SBD,M
Boys,82.5,8,Dalton Wagenschein,Robinson,75.39,108.86,65.77,113.4,288.03,Single-ply,SBD,M
Boys,82.5,9,Justin Bahajak,Riesel,80.65,,81.65,158.76,240.4,Single-ply,BD,M
Boys,90,1,Austin Williams,Robinson,87.09,167.83,111.13,158.76,437.72,Single-ply,SBD,M
Boys,90,2,Jamiah Weathington,Robinson,84.91,158.76,97.52,158.76,415.04,Single-ply,SBD,M
Boys,90,3,Gustavo Aguilar,Moody,88.27,142.88,102.06,165.56,410.5,Single-ply,SBD,M
Boys,90,4,Tyson Boen,Robinson,87.54,115.67,74.84,138.35,328.85,Single-ply,SBD,M
Boys,90,5,Reese Sims,Rosebud-Lott,82.46,,92.99,142.88,235.87,Single-ply,BD,M
Boys,100,1,Alex Parsons,McGregor,96.89,229.06,136.08,219.99,585.13,Single-ply,SBD,M
Boys,100,2,Aaron Benitez,McGregor,90.9,226.8,131.54,197.31,555.65,Single-ply,SBD,M
Boys,100,3,Greg Williams,McGregor,90.63,181.44,108.86,197.31,487.61,Single-ply,SBD,M
Boys,100,4,Randy Sandoval,McGregor,93.8,163.29,77.11,170.1,410.5,Single-ply,SBD,M
Boys,100,5,Mike Castillo,McGregor,92.8,,142.88,240.4,383.29,Single-ply,BD,M
Boys,110,1,Cooper McCauley,McGregor,105.96,188.24,113.4,197.31,498.95,Single-ply,SBD,M
Boys,110,2,Daniel Wilde-Berry,Robinson,108.86,163.29,92.99,161.03,417.3,Single-ply,SBD,M
Boys,110,3,Colton Schmedthorst,Riesel,101.06,149.69,95.25,165.56,410.5,Single-ply,SBD,M
Boys,110,4,Jonathan Richards,Robinson,108.95,124.74,77.11,127.01,328.85,Single-ply,SBD,M
Boys,110,5,Devon Olivares,Robinson,104.87,113.4,79.38,129.27,322.05,Single-ply,SBD,M
Boys,125,1,Hunter Straten,Moody,123.01,174.63,127.01,183.7,485.34,Single-ply,SBD,M
Boys,125,2,Dawson Brown,McGregor,113.76,185.97,115.67,158.76,460.4,Single-ply,SBD,M
Boys,125,3,Brian Diaz,McGregor,123.01,163.29,92.99,151.95,408.23,Single-ply,SBD,M
Boys,125+,1,Connor Barnett,Robinson,149.32,267.62,181.44,244.94,694,Single-ply,SBD,M
Boys,125+,2,Jordon White,McGregor,139.62,197.31,99.79,158.76,455.86,Single-ply,SBD,M
