Name,Place,Division,Sex,Equipment,State,WeightClassKg,BodyweightKg,Age,Best3SquatKg,Best3BenchKg,Best3DeadliftKg,TotalKg,Event
Cristal Montes,1,Juniors 18-19,F,Raw,CA,67.5,66.4,18,,37.5,,37.5,B
Tina Daneshmand,1,Open,F,Raw,CA,52,51,28,,75,,75,B
Charlie LaMantia,1,Juniors 18-19,M,Raw,CA,110,101.4,18,,125,,125,B
Rodney Thomas,1,Open,M,Raw,CA,100,99.7,28,,205,,205,B
Herman Dean,1,Open,M,Raw,CA,110,102.8,29,,197.5,,197.5,B
Taylor Roche,1,Open,M,Raw,CA,125,120.8,24,,190,,190,B
Reggie Washington,1,Submasters 35-39,M,Raw,CA,140+,161.8,35,,185,,185,B
Kevin Meskew,1,Masters 55-59,M,Raw,CA,67.5,66.3,59,,102.5,,102.5,B
Steve Denning,1,Masters 60-64,M,Raw,CA,125,113.6,60,,125,,125,B
Ron Moormeister,1,Masters 65-69,M,Raw,CA,125,118,68,,142.5,,142.5,B
Cristal Montes,1,Juniors 18-19,F,Raw,CA,67.5,66.4,18,,,95,95,D
Rodney Thomas,1,Open,M,Raw,CA,100,99.7,28,,,272.5,272.5,D
Reggie Washington,1,Submasters 35-39,M,Raw,CA,140+,161.8,35,,,227.5,227.5,D
Kevin Meskew,1,Masters 55-59,M,Raw,CA,67.5,66.3,59,,,200,200,D
Francis Astilla,1,Masters 40-44,M,Raw,CA,75,69.8,41,,,192.5,192.5,D
Michael Brown,1,Masters 50-54,M,Raw,CA,90,89.1,54,,,157.5,157.5,D
