Division,WeightClassKg,Place,Name,Team,BodyweightKg,Best3SquatKg,Best3BenchKg,Best3DeadliftKg,TotalKg,Equipment,Event,Sex
Boys,52,1,Tyrese Perkins,Cotulla,50.76,113.4,65.77,127.01,306.17,Single-ply,SBD,M
Boys,52,DQ,Sebastian Flores,Blanco,51.62,,,,,Single-ply,SBD,M
Boys,56,1,Jason Flores,Cotulla,54.79,149.69,74.84,142.88,367.41,Single-ply,SBD,M
Boys,56,2,Jesse Gonzalez,San Antonio Holy Cross,55.52,131.54,74.84,142.88,349.27,Single-ply,SBD,M
Boys,56,3,Dominic Mercado,San Antonio Cole,55.79,122.47,68.04,142.88,333.39,Single-ply,SBD,M
Boys,60,1,Anthony Perez,San Antonio Cole,59.87,190.51,108.86,208.65,508.02,Single-ply,SBD,M
Boys,60,2,Nathan Martinez,San Antonio Holy Cross,56.15,129.27,68.04,156.49,353.8,Single-ply,SBD,M
Boys,60,3,Justin Jones,Universal City Randolph,59.69,131.54,86.18,136.08,353.8,Single-ply,SBD,M
Boys,60,4,Jorge Gonzales,Cotulla,59.87,104.33,70.31,115.67,290.3,Single-ply,SBD,M
Boys,60,5,Reagan Leone,Cotulla,59.87,77.11,56.7,99.79,233.6,Single-ply,SBD,M
Boys,60,6,Juid Colchado,Cotulla,59.87,140.61,90.72,,231.33,Single-ply,SB,M
Boys,60,DQ,Roman Ornelas,San Antonio Holy Cross,58.74,,,,,Single-ply,SBD,M
Boys,67.5,1,Kristopher Imhof,San Antonio Cole,66.04,208.65,111.13,210.92,530.7,Single-ply,SBD,M
Boys,67.5,2,Eddie Torres,Blanco,65.32,190.51,117.93,204.12,512.56,Single-ply,SBD,M
Boys,67.5,3,Steven Flores,Blanco,66.86,181.44,102.06,190.51,474,Single-ply,SBD,M
Boys,67.5,4,Tristan Watson,Bandera,66.81,158.76,102.06,165.56,426.38,Single-ply,SBD,M
Boys,67.5,5,Seth Taggs,Floresville,62.32,138.35,92.99,156.49,387.82,Single-ply,SBD,M
Boys,67.5,6,Matthew Contreras,Natalia,63.14,138.35,74.84,142.88,356.07,Single-ply,SBD,M
Boys,67.5,7,Michael Stokes,Universal City Randolph,66.9,120.2,92.99,136.08,349.27,Single-ply,SBD,M
Boys,67.5,8,Jason Mitchel,Floresville,64.95,120.2,79.38,142.88,342.46,Single-ply,SBD,M
Boys,67.5,9,Leif Griffin,San Antonio Southwest,66.54,122.47,79.38,136.08,337.93,Single-ply,SBD,M
Boys,67.5,DQ,Adrian Sanchez,Floresville,64.05,147.42,,,,Single-ply,SBD,M
Boys,67.5,DQ,Raul Garcia,Cotulla,65.77,,,,,Single-ply,SBD,M
Boys,75,1,Dustin Del Toro,Cotulla,74.8,208.65,115.67,229.06,553.38,Single-ply,SBD,M
Boys,75,2,Jacob Aguilar,San Antonio Holy Cross,72.71,197.31,129.27,183.7,510.29,Single-ply,SBD,M
Boys,75,3,Justin Requenes,Blanco,73.39,167.83,124.74,192.78,485.34,Single-ply,SBD,M
Boys,75,4,Matthew Garcia,San Antonio Holy Cross,70.35,172.37,92.99,188.24,453.59,Single-ply,SBD,M
Boys,75,5,Angel Martinez,Cotulla,74.57,170.1,106.59,174.63,451.32,Single-ply,SBD,M
Boys,75,6,Tyrell Dunlap,San Antonio Cole,71.85,167.83,92.99,181.44,442.25,Single-ply,SBD,M
Boys,75,7,Seth Galindo,Floresville,70.49,156.49,92.99,174.63,424.11,Single-ply,SBD,M
Boys,75,8,Bryce Basso,Universal City Randolph,69.58,142.88,88.45,181.44,412.77,Single-ply,SBD,M
Boys,75,9,Alex Gill,Universal City Randolph,70.03,167.83,83.91,147.42,399.16,Single-ply,SBD,M
Boys,75,10,Keith Wilkinson,San Antonio Cole,74.48,147.42,86.18,140.61,374.21,Single-ply,SBD,M
Boys,75,11,Monte Lopez,Universal City Randolph,68.67,136.08,83.91,151.95,371.95,Single-ply,SBD,M
Boys,75,12,Evan O'Berg,Universal City Randolph,67.63,136.08,74.84,149.69,360.61,Single-ply,SBD,M
Boys,75,13,Martin Torres,San Antonio Southwest,72.57,113.4,83.91,133.81,331.12,Single-ply,SBD,M
Boys,75,14,Binyamin Flade,Natalia,70.9,102.06,65.77,124.74,292.57,Single-ply,SBD,M
Boys,75,15,Elijah Macneil,Bandera,73.66,151.95,88.45,,240.4,Single-ply,SB,M
Boys,75,16,Jessie Zimmel,Bandera,69.67,113.4,90.72,,204.12,Single-ply,SB,M
Boys,75,DQ,Eddie Lopez,Universal City Randolph,71.44,,,,,Single-ply,SBD,M
Boys,82.5,1,Robert Adame,San Antonio Holy Cross,79.29,210.92,142.88,215.46,569.26,Single-ply,SBD,M
Boys,82.5,2,Alex Paredes,Natalia,81.01,240.4,102.06,213.19,555.65,Single-ply,SBD,M
Boys,82.5,3,Hunter Duplessis,San Antonio Cole,78.34,204.12,120.2,199.58,523.9,Single-ply,SBD,M
Boys,82.5,4,Andre Garza,Cotulla,80.97,204.12,124.74,192.78,521.63,Single-ply,SBD,M
Boys,82.5,5,Marcus Ortega,Northside Brennan,76.38,199.58,108.86,199.58,508.02,Single-ply,SBD,M
Boys,82.5,6,Chase Horton,Blanco,75.61,181.44,99.79,190.51,471.74,Single-ply,SBD,M
Boys,82.5,7,Micah Wilson,Universal City Randolph,79.7,172.37,104.33,181.44,458.13,Single-ply,SBD,M
Boys,82.5,8,Jacob Ruiz,Blanco,80.2,172.37,104.33,181.44,458.13,Single-ply,SBD,M
Boys,82.5,9,Wyatt Blair,Bandera,79.74,165.56,108.86,167.83,442.25,Single-ply,SBD,M
Boys,82.5,10,Trevor Leggett,Bandera,80.6,127.01,111.13,188.24,426.38,Single-ply,SBD,M
Boys,82.5,11,Dalin Stone,San Antonio Cole,80.42,156.49,86.18,181.44,424.11,Single-ply,SBD,M
Boys,82.5,12,Isaiah Gomez,Natalia,79.56,154.22,90.72,170.1,415.04,Single-ply,SBD,M
Boys,82.5,13,Nicholas Propst,San Antonio Southwest,80.33,133.81,77.11,140.61,351.53,Single-ply,SBD,M
Boys,82.5,14,Damian Rivas,San Antonio Southwest,80.6,124.74,54.43,131.54,310.71,Single-ply,SBD,M
Boys,82.5,DQ,Edward Kierstead,San Antonio Southwest,80.42,,,,,Single-ply,SBD,M
Boys,90,1,Peter Billalobos,Natalia,84.91,197.31,88.45,192.78,478.54,Single-ply,SBD,M
Boys,90,2,Kyle Martinez,Blanco,83.1,192.78,113.4,170.1,476.27,Single-ply,SBD,M
Boys,90,3,Alejandro Sanchez,Natalia,86.32,170.1,90.72,190.51,451.32,Single-ply,SBD,M
Boys,90,4,Joseph Martinez,Cotulla,89.54,170.1,97.52,179.17,446.79,Single-ply,SBD,M
Boys,90,5,Joshua Jones,San Antonio Southwest,89.54,147.42,90.72,190.51,428.64,Single-ply,SBD,M
Boys,90,6,Dylan Vogt,San Antonio Holy Cross,86.77,170.1,65.77,165.56,401.43,Single-ply,SBD,M
Boys,90,7,Phillip Herrera,San Antonio Southwest,87.18,120.2,111.13,161.03,392.36,Single-ply,SBD,M
Boys,90,8,Brock Nichols,Blanco,82.78,120.2,72.57,136.08,328.85,Single-ply,SBD,M
Boys,90,DQ,Brandon Phipps,Blanco,83.96,167.83,106.59,,,Single-ply,SBD,M
Boys,90,DQ,Gus Martinez,Blanco,89.54,172.37,,,,Single-ply,SBD,M
Boys,90,DQ,Will Adams,Blanco,85.77,138.35,,,,Single-ply,SBD,M
Boys,90,DQ,Andrew Stillwell,Cotulla,89.81,181.44,,,,Single-ply,SBD,M
Boys,90,DQ,Quinton Sansing,Floresville,87.59,170.1,,,,Single-ply,SBD,M
Boys,100,1,Raymond Casarez,San Antonio Holy Cross,95.35,224.53,113.4,233.6,571.53,Single-ply,SBD,M
Boys,100,2,Chance Horton,Blanco,98.61,183.7,108.86,154.22,446.79,Single-ply,SBD,M
Boys,100,3,Rolando Pulido,Floresville,91.13,158.76,92.99,183.7,435.45,Single-ply,SBD,M
Boys,100,4,Seth Almendarez,San Antonio Holy Cross,95.89,154.22,88.45,165.56,408.23,Single-ply,SBD,M
Boys,100,5,Tristan Gunter,Floresville,95.53,127.01,88.45,176.9,392.36,Single-ply,SBD,M
Boys,100,6,Seth Johnson #2,Bandera,96.3,149.69,83.91,154.22,387.82,Single-ply,SBD,M
Boys,100,7,Travis Riechert,Bandera,90.26,104.33,81.65,147.42,333.39,Single-ply,SBD,M
Boys,110,1,Jacob Caldera,San Antonio Cole,106.28,272.16,167.83,233.6,673.58,Single-ply,SBD,M
Boys,110,2,Austen Flores,San Antonio Holy Cross,108.73,215.46,117.93,263.08,596.47,Single-ply,SBD,M
Boys,110,3,Oscar Ramirez,Natalia,108.14,206.38,115.67,188.24,510.29,Single-ply,SBD,M
Boys,110,4,Logan Crane,Bandera,106.19,192.78,129.27,176.9,498.95,Single-ply,SBD,M
Boys,110,5,Mason Mclerran,Bandera,103.83,204.12,99.79,165.56,469.47,Single-ply,SBD,M
Boys,110,6,Fransisco Uhl,San Antonio Southwest,107,142.88,108.86,167.83,419.57,Single-ply,SBD,M
Boys,110,7,Donny Brown,Floresville,102.47,149.69,92.99,163.29,405.97,Single-ply,SBD,M
Boys,110,8,Christian Adame,San Antonio Southwest,109.23,147.42,68.04,185.97,401.43,Single-ply,SBD,M
Boys,110,9,AJ Ortiz,San Antonio Holy Cross,109.41,142.88,68.04,156.49,367.41,Single-ply,SBD,M
Boys,125,1,Santiago Leija,Natalia,116.48,215.46,156.49,219.99,591.94,Single-ply,SBD,M
Boys,125,2,Cody Kuhl,Universal City Randolph,113.22,222.26,117.93,238.14,578.33,Single-ply,SBD,M
Boys,125,3,Victor Cruz,Natalia,120.29,217.72,115.67,215.46,548.85,Single-ply,SBD,M
Boys,125,4,George Lockamy,Floresville,112.76,190.51,102.06,174.63,467.2,Single-ply,SBD,M
Boys,125,5,Jesus Mendoza-Estrada,San Antonio Southwest,118.89,147.42,111.13,165.56,424.11,Single-ply,SBD,M
Boys,125,6,Jose Murrillo,San Antonio Southwest,118.3,161.03,86.18,167.83,415.04,Single-ply,SBD,M
Boys,125,7,Pedro Castillo,Floresville,115.89,151.95,102.06,154.22,408.23,Single-ply,SBD,M
Boys,125,8,Arturo Lopez,San Antonio Southwest,111.27,131.54,81.65,154.22,367.41,Single-ply,SBD,M
Boys,125+,1,Joseph Peña #1,San Antonio Holy Cross,153.77,333.39,183.7,278.96,796.05,Single-ply,SBD,M
Boys,125+,2,Ray Navarro,Natalia,134.08,331.12,163.29,274.42,768.84,Single-ply,SBD,M
Boys,125+,3,Isaiah Atseriak,San Antonio Cole,132.9,210.92,92.99,215.46,519.36,Single-ply,SBD,M
Boys,125+,4,Phillip Gonzalez,San Antonio Holy Cross,145.33,190.51,115.67,204.12,510.29,Single-ply,SBD,M
Boys,125+,5,Joshua Delgado,San Antonio Holy Cross,151.36,183.7,61.23,174.63,419.57,Single-ply,SBD,M
Boys,125+,6,Jonah Masters,San Antonio Cole,135.94,249.48,120.2,,369.68,Single-ply,SB,M
Boys,125+,7,George Ortiz,San Antonio Southwest,132.04,133.81,61.23,158.76,353.8,Single-ply,SBD,M
Boys,125+,DQ,Viviano Rodriguez,Cotulla,131.63,272.16,,,,Single-ply,SBD,M
Boys,125+,DQ,Roland Barcena,San Antonio Holy Cross,142.65,260.82,,,,Single-ply,SBD,M
