Sex,Name,State,Country,Event,Age,WeightClassKg,Equipment,Division,Best3SquatKg,Squat4Kg,Best3BenchKg,Bench4Kg,Best3DeadliftKg,Deadlift4Kg,TotalKg,Place
F,Sarah Biddle,IN,USA,B,12,40,Raw,Y 12-13,,,37.5,,,,37.5,1
F,Anna Ortosova,,Slovakia,B,42,48,Raw,Disabled,,,85,,,,85,1
F,Heather Fry,TX,USA,B,24,52,Single-ply,Life,,,52.5,,,,52.5,1
F,Maria Bartosova,,Slovakia,B,44,56,Raw,Disabled,,,85,90,,,85,1
F,Brenda Aguire,,Mexico,B,,56,Single-ply,Open,,,,,,,,DQ
F,Jackie Yarbrough,AZ,USA,B,59,56,Raw,Law/Mil,,,35,,,,35,1
F,Teale Adelman,NM,USA,B,33,56,Single-ply,Sub,,,117.5,120,,,117.5,1
F,Elodia Womack,CA,USA,B,41,60,Single-ply,LM 40-44,,,60,,,,60,1
F,Cynthia Gervais,NC,USA,B,34,60,Raw,Open,,,45,,,,45,1
F,Elodia Womack,CA,USA,B,41,60,Raw,LM 40-44,,,50,,,,50,1
F,Mary Hetzel,CO,USA,B,45,67.5,Single-ply,LM 45-49,,,87.5,,,,87.5,1
F,Jean Gardella,RI,USA,B,,67.5,Raw,Open,,,100,,,,100,1
F,Jean Gardella,RI,USA,B,,67.5,Raw,Sub,,,100,,,,100,1
F,Gretchen Ashton,CA,USA,B,45,75,Single-ply,Life,,,95,100,,,95,1
F,Gretchen Ashton,CA,USA,B,45,75,Single-ply,LM 45-49,,,95,100,,,95,1
F,Gretchen Ashton,CA,USA,B,45,75,Single-ply,M 45-49,,,95,100,,,95,1
F,Gretchen Ashton,CA,USA,B,45,75,Single-ply,Open,,,95,100,,,95,1
F,Svitlana Viychuk,,Ukraine,B,32,75,Single-ply,Open,,,,,,,,DQ
F,Margot O'Halloran,CA,USA,B,14,75,Raw,T 14-15,,,55,,,,55,1
F,Abigail Biddle,IN,USA,B,16,75,Raw,T 16-17,,,60,,,,60,1
F,Margot O'Halloran,CA,USA,B,14,75,Single-ply,T 14-15,,,70,,,,70,1
F,Kelly Womak,CA,USA,B,,82.5,Single-ply,Jr,,,117.5,,,,117.5,1
F,Kelly Womak,CA,USA,B,,82.5,Single-ply,Open,,,117.5,,,,117.5,1
F,Alannagh Mctighe,CO,USA,B,53,90,Single-ply,M 50-54,,,97.5,100,,,97.5,1
F,Hannah Biddle,IN,USA,B,14,90+,Raw,T 14-15,,,47.5,,,,47.5,1
F,Sarah Biddle,IN,USA,D,12,40,Raw,Y 12-13,,,,,75,,75,1
F,Helene Tropp,CA,USA,D,65,44,Raw,M 65-69,,,,,97.5,,97.5,1
F,Heather Fry,TX,USA,D,24,52,Single-ply,Life,,,,,102.5,,102.5,1
F,Cynthia Gervais,NC,USA,D,34,60,Raw,Open,,,,,97.5,,97.5,1
F,Suasn Collins,AZ,USA,D,43,75,Raw,LM 40-44,,,,,130,,130,1
F,Debbie Selby,CA,USA,D,48,75,Raw,LM 45-49,,,,,110,,110,1
F,Debbie Selby,CA,USA,D,48,75,Raw,M 45-49,,,,,110,,110,1
F,Abigail Biddle,IN,USA,D,16,75,Raw,T 16-17,,,,,130.5,,130.5,1
F,Hannah Biddle,IN,USA,D,14,90+,Raw,T 14-15,,,,,97.5,,97.5,1
F,Sarah Biddle,IN,USA,SBD,12,40,Raw,Y 12-13,60,,35,,75,,170,1
F,Joanne Shear,MA,USA,SBD,54,52,Single-ply,M 50-54,100,,55,,137.5,,292.5,1
F,Heather Fry,TX,USA,SBD,24,52,Single-ply,Open,115,,52.5,,102.5,,270,1
F,Robin Hedrick,TX,USA,SBD,39,56,Single-ply,Life,70,,50,,100,,220,1
F,Kleanna Gutierez,OR,USA,SBD,26,56,Single-ply,Open,80,,55,,115,,250,1
F,Brenda Aguire,,Mexico,SBD,,56,Single-ply,Open,,,,,,,,DQ
F,Brenda Aguire,,Mexico,SBD,,56,Single-ply,Open,,,,,,,,DQ
F,Sharon Hoffman,VA,USA,SBD,34,56,Raw,Open,,,,,,,,DQ
F,Laura Anderson,MO,USA,SBD,38,56,Single-ply,Sub,72.5,,52.5,,107.5,,232.5,1
F,Heather Hughes,TX,USA,SBD,41,60,Single-ply,M 40-44,135,,72.5,,170,,377.5,1
F,Cynthia Gervais,NC,USA,SBD,34,60,Raw,Open,52.5,,45,,97.5,,195,1
F,Melinda Carter,TX,USA,SBD,37,60,Single-ply,Sub,137.5,,67.5,,150,,355,1
F,Diane Manno,AZ,USA,SBD,42,67.5,Single-ply,LM 40-44,110,,62.5,,117.5,,290,1
F,Mary Hetzel,CO,USA,SBD,45,67.5,Single-ply,LM 45-49,140,,87.5,,155,,382.5,1
F,Jean Gardella,RI,USA,SBD,,67.5,Raw,Open,110,,100,,140,,350,1
F,Jean Gardella,RI,USA,SBD,,67.5,Raw,Sub,110,,100,,140,,350,1
F,Genny Caton,VA,USA,SBD,47,67.5,Raw,LM 45-49,80,,95,100,130,,305,1
F,Genny Caton,VA,USA,SBD,47,67.5,Raw,M 45-49,80,,95,100,130,,305,1
F,Chanice Sutherland,CA,USA,SBD,14,67.5,Raw,T 14-15,92.5,95,50,,115,,257.5,1
F,Sabrina Bagby,,USA,SBD,48,75,Single-ply,LM 45-49,117.5,,65,,127.5,,310,1
F,Gretchen Ashton,CA,USA,SBD,45,75,Single-ply,LM 45-49,70,,95,100,125,,290,2
F,Gretchen Ashton,CA,USA,SBD,45,75,Single-ply,M 45-49,70,,95,100,125,,290,1
F,Debbie Selby,CA,USA,SBD,48,75,Raw,LM 45-49,45,,37.5,,110,,192.5,1
F,Elaine Waugh,NM,USA,SBD,63,75,Raw,M 60-64,55,,42.5,,97.5,,195,1
F,Abigail Biddle,IN,USA,SBD,16,75,Raw,T 16-17,105,,60,,130.5,,295.5,1
F,Abigail Biddle,IN,USA,SBD,16,75,Single-ply,T 16-17,105,,60,,130.5,,295.5,1
F,Bethany Schwaninger,IL,USA,SBD,18,75,Single-ply,T 18-19,127.5,,67.5,,155,,350,1
F,Giselle Costas,,Puerto Rico,SBD,24,82.5,Single-ply,Open,190,200,107.5,,227.5,,525,1
F,Jessica Outman,PA,USA,SBD,15,82.5,Raw,T 14-15,37.5,,62.5,,117.5,,217.5,1
F,Florence Wilson,PA,USA,SBD,10,82.5,Raw,Y 10-11,37.5,42.5,27.5,28.5,45,,110,1
F,Melissa Garrett,TN,USA,SBD,26,90+,Single-ply,Open,175,,90,,157.5,,422.5,1
F,Hannah Biddle,IN,USA,SBD,14,90+,Raw,T 14-15,87.5,,47.5,,97.5,,232.5,1
F,Hannah Biddle,IN,USA,SBD,14,90+,Single-ply,T 14-15,87.5,,47.5,,97.5,,232.5,1
F,Alecia Benninger,OH,USA,SBD,19,90+,Single-ply,T 18-19,182.5,,85,,170,,437.5,1
F,Sarah Biddle,IN,USA,BD,12,40,Raw,Y 12-13,,,35,,75,,110,1
F,Kelly Flahive,CA,USA,BD,16,48,Raw,T 16-17,,,52.5,,110,,162.5,1
F,Brenda Aguire,,Mexico,BD,,56,Single-ply,Open,,,,,,,,DQ
F,Cynthia Gervais,NC,USA,BD,34,60,Raw,Open,,,45,,97.5,,142.5,1
F,Leah Sherman,CA,USA,BD,14,60,Raw,T 14-15,,,35,,95,,130,1
F,Lynn Naftel,CA,USA,BD,57,67.5,Raw,LM 55-59,,,47.5,,107.5,,155,1
F,Lynn Naftel,CA,USA,BD,57,67.5,Raw,M 55-59,,,47.5,,107.5,,155,1
F,Suasn Collins,AZ,USA,BD,43,75,Raw,LM 40-44,,,60,,130,,190,1
F,Elaine Waugh,NM,USA,SBD,63,75,Raw,M 60-64,55,,42.5,,97.5,,195,2
F,Abigail Biddle,IN,USA,BD,16,75,Raw,T 16-17,,,60,,130.5,,190.5,1
F,Hannah Biddle,IN,USA,BD,14,90+,Raw,T 14-15,,,47.5,,97.5,,145,1
M,Jack Dunham,CA,USA,B,11,44,Raw,Y 10-11,,,40,,,,40,1
M,Brad Williamson,OK,USA,B,15,52,Single-ply,T 14-15,,,,,,,,DQ
M,Michael Booker,CA,USA,B,22,56,Raw,Open,,,165,,,,165,1
M,Mark Schultz,NV,USA,B,46,60,Raw,LM 45-49,,,,,,,,DQ
M,Victor Hill Jr,CA,USA,B,15,60,Raw,T 14-15,,,65,,,,65,1
M,Narbe Mansourian,CA,USA,B,28,67.5,Single-ply,Life,,,162.5,,,,162.5,1
M,Jorge Ortega,,Mexico,SBD,32,67.5,Single-ply,Open,195,,120,,212.5,,527.5,2
M,Narbe Mansourian,CA,USA,B,28,67.5,Single-ply,Open,,,162.5,,,,162.5,1
M,Narbe Mansourian,CA,USA,B,28,67.5,Raw,Aw Life,,,162.5,,,,162.5,1
M,Narbe Mansourian,CA,USA,B,28,67.5,Raw,Aw Open,,,162.5,,,,162.5,1
M,Darin Bennett,CA,USA,B,41,67.5,Raw,LM 40-44,,,130.5,,,,130.5,1
M,Mac Scott,AZ,USA,B,52,67.5,Raw,LM 50-54,,,90,,,,90,1
M,Roger Tinkham,IN,USA,B,50,67.5,Raw,LM 50-54,,,67.5,,,,67.5,2
M,Jim Selby,CA,USA,B,75,67.5,Raw,LM 75-79,,,55,,,,55,1
M,Darin Bennett,CA,USA,B,41,67.5,Raw,M 40-44,,,130.5,,,,130.5,1
M,Roger Tinkham,IN,USA,B,50,67.5,Raw,M 50-54,,,67.5,,,,67.5,1
M,Alex Martinez,CA,USA,B,16,67.5,Raw,T 16-17,,,97.5,,,,97.5,1
M,Jerry Uribe,CA,USA,B,17,67.5,Raw,T 16-17,,,95,,,,95,2
M,Jerry Uribe,CA,USA,B,17,67.5,Raw,T 16-17,,,95,,,,95,3
M,Joseph Moon,CA,USA,B,13,67.5,Raw,Y 12-13,,,90,,,,90,1
M,Evan Davidson,AZ,USA,B,33,75,Single-ply,Open,,,187.5,,,,187.5,1
M,Gene Marshall,MA,USA,B,37,75,Single-ply,Open,,,185,,,,185,2
M,Aaron Benes,CA,USA,B,25,75,Single-ply,Open,,,92.5,,,,92.5,3
M,Ray Lopez,CA,USA,B,68,75,Raw,LM 65-69,,,127.5,130,,,127.5,1
M,James Mathews,CA,USA,B,70,75,Raw,LM 70-74,,,92.5,,,,92.5,1
M,Mark Mathews Jr,CA,USA,B,14,75,Raw,T 14-15,,,130,,,,130,1
M,Shawn Wingert,MO,USA,B,36,75,Single-ply,Sub,,,140,,,,140,1
M,Mike Bingham,PA,USA,B,39,82.5,Single-ply,Law/Mil,,,170,,,,170,1
M,David Torrez,NM,USA,B,27,82.5,Single-ply,Life,,,,,,,,DQ
M,Rich Branch,CA,USA,B,48,82.5,Single-ply,LM 45-49,,,152.5,,,,152.5,1
M,Martin Drake,CA,USA,B,53,82.5,Single-ply,LM 50-54,,,155.5,,,,155.5,1
M,Steve Kylis,CA,USA,B,52,82.5,Single-ply,LM 50-54,,,,,,,,DQ
M,Steve Kylis,CA,USA,B,52,82.5,Single-ply,LM 50-54,,,,,,,,DQ
M,Greg Clover,CA,USA,B,55,82.5,Single-ply,LM 55-59,,,147.5,,,,147.5,1
M,John Hopf,NY,USA,B,58,82.5,Single-ply,LM 55-59,,,127.5,,,,127.5,2
M,Stephen Montrose,FL,USA,B,87,82.5,Single-ply,LM 85-89,,,,,,,,DQ
M,Charles Peters,MA,USA,B,40,82.5,Single-ply,M 40-44,,,167.5,,,,167.5,1
M,Greg Clover,CA,USA,B,55,82.5,Single-ply,M 55-59,,,147.5,,,,147.5,1
M,Les Cramer,FL,USA,B,62,82.5,Single-ply,M 60-64,,,60,,,,60,1
M,Rudy Lozano,CA,USA,B,65,82.5,Single-ply,M 65-69,,,160,,,,160,1
M,Richard Simon,CA,USA,B,73,82.5,Single-ply,M 70-74,,,110,,,,110,1
M,Mike Bingham,PA,USA,B,39,82.5,Single-ply,Open,,,170,,,,170,1
M,Saul Baldaramo,,Mexico,B,32,82.5,Single-ply,Open,,,165,,,,165,2
M,Kevin Nunez,CA,USA,B,34,82.5,Raw,Life,,,137.5,,,,137.5,1
M,Kevin Nunez,CA,USA,B,34,82.5,Raw,Open,,,137.5,,,,137.5,1
M,Thomas Hendron,NV,USA,B,47,82.5,Raw,LM 45-49,,,105,,,,105,1
M,Greg Clover,CA,USA,B,55,82.5,Raw,LM 55-59,,,147.5,,,,147.5,1
M,Yogi Sumner,NC,USA,B,55,82.5,Raw,LM 55-59,,,115,120.5,,,115,2
M,Thomas Hendron,NV,USA,B,47,82.5,Raw,M 45-49,,,105,,,,105,1
M,Martin Drake,CA,USA,B,53,82.5,Raw,M 50-54,,,140,141,,,140,1
M,Greg Clover,CA,USA,B,55,82.5,Raw,M 55-59,,,147.5,,,,147.5,1
M,Matt Clark,CA,USA,B,16,82.5,Raw,T 16-17,,,110,,,,110,1
M,Mike Bingham,PA,USA,B,39,82.5,Single-ply,Sub,,,170,,,,170,1
M,Jose Cabrera,,Puerto Rico,B,41,90,Single-ply,Life,,,172.5,,,,172.5,1
M,Aurelio Velazquez,CA,USA,B,40,90,Single-ply,Life,,,142.5,,,,142.5,2
M,Les Hilger,CA,USA,B,61,90,Single-ply,LM 60-64,,,142.5,146,,,142.5,1
M,Fred Collingwood,CA,USA,B,60,90,Single-ply,LM 60-64,,,141,143,,,141,2
M,Kurt Matison,AR,USA,B,40,90,Single-ply,M 40-44,,,,,,,,DQ
M,Bill Weiss,CA,USA,B,45,90,Single-ply,M 45-49,,,,,,,,DQ
M,Ronald Matheson,AZ,USA,B,61,90,Single-ply,M 60-64,,,167.5,,,,167.5,1
M,Troy Stuart,KS,USA,B,30,90,Single-ply,Open,,,220,,,,220,1
M,Sean DeMarinis,CA,USA,B,18,90,Single-ply,Open,,,,,,,,DQ
M,Sam Arase,CA,USA,B,46,90,Raw,Law/Mil,,,175,,,,175,1
M,Aurelio Velazquez,CA,USA,B,40,90,Raw,Law/Mil,,,142.5,,,,142.5,2
M,Sam Arase,CA,USA,B,46,90,Raw,LM 45-49,,,175,,,,175,1
M,Herb Heald,TX,USA,B,54,90,Raw,LM 50-54,,,110,,,,110,1
M,Fred Collingwood,CA,USA,B,60,90,Raw,LM 60-64,,,141,143,,,141,1
M,Bill Weiss,CA,USA,B,45,90,Raw,M 45-49,,,127.5,,,,127.5,1
M,Herb Heald,TX,USA,B,54,90,Raw,M 50-54,,,110,,,,110,1
M,Sean DeMarinis,CA,USA,B,18,90,Single-ply,T 18-19,,,,,,,,DQ
M,Don Froese,,Canada,B,50,100,Single-ply,Law/Mil,,,,,,,,DQ
M,Norm Judd,ND,USA,B,47,100,Single-ply,Life,,,192.5,,,,192.5,1
M,Oscar Orengo,,Puerto Rico,B,33,100,Single-ply,Life,,,180,,,,180,2
M,Norm Judd,ND,USA,B,47,100,Single-ply,LM 45-49,,,192.5,,,,192.5,1
M,Don Froese,,Canada,B,50,100,Single-ply,LM 50-54,,,,,,,,DQ
M,Bob Dunham,CA,USA,B,40,100,Single-ply,M 40-44,,,242.5,,,,242.5,1
M,Don Froese,,Canada,B,50,100,Single-ply,M 50-54,,,,,,,,DQ
M,Bob Evans #1,CA,USA,B,58,100,Single-ply,M 55-59,,,182.5,,,,182.5,1
M,Mike Romero,,USA,B,36,100,Single-ply,Open,,,257.5,,,,257.5,1
M,Joe Thompson,IA,USA,B,31,100,Single-ply,Open,,,232.5,240,,,232.5,2
M,Michael Carrol,UK,USA,B,34,100,Raw,Open,,,,,,,,DQ
M,Leo Cicheli,NY,USA,B,44,100,Raw,LM 40-44,,,202.5,,,,202.5,1
M,Mark Mathews,CA,USA,B,41,100,Raw,LM 40-44,,,175,,,,175,2
M,John Kuhar,OH,USA,B,57,100,Raw,LM 55-59,,,172.5,,,,172.5,1
M,Earl Evatt,AZ,USA,B,70,100,Raw,LM 70-74,,,130,132.5,,,130,1
M,John Kuhar,OH,USA,B,57,100,Raw,M 55-59,,,172.5,,,,172.5,1
M,Earl Evatt,AZ,USA,B,70,100,Raw,M 70-74,,,130,132.5,,,130,1
M,Jordan Indovino,CA,USA,B,15,100,Raw,T 14-15,,,150,,,,150,1
M,Marco Garcia,CA,USA,B,16,100,Raw,T 16-17,,,107.5,,,,107.5,1
M,Steve Williams,CA,USA,B,46,110,Single-ply,Law/Mil,,,222.5,,,,222.5,1
M,Mike Stumbo,TX,USA,B,46,110,Single-ply,Law/Mil,,,215,,,,215,2
M,Mo Rau,CA,USA,B,66,110,Single-ply,LM 65-69,,,137.5,,,,137.5,1
M,Lee Eliff,TX,USA,B,44,110,Single-ply,M 40-44,,,232.5,240,,,232.5,1
M,Kim Brownfield,OK,USA,B,,110,Single-ply,M 40-44,,,,,,,,DQ
M,Steve Williams,CA,USA,B,46,110,Single-ply,M 45-49,,,222.5,,,,222.5,1
M,Mike Stumbo,TX,USA,B,46,110,Single-ply,M 45-49,,,215,,,,215,2
M,Vitilay Bobchenko,,Ukraine,B,25,110,Single-ply,Open,,,,,,,,DQ
M,Kim Brownfield,OK,USA,B,,110,Single-ply,Open,,,,,,,,DQ
M,Ron Gavett,CA,USA,B,39,110,Raw,Sub,,,195,,,,195,1
M,Victor Hill,CA,USA,B,43,110,Raw,M 40-44,,,160,,,,160,1
M,Mark Bowne,CA,USA,B,15,110,Raw,T 14-15,,,167.5,,,,167.5,1
M,Jonathan Morgan,CA,USA,B,15,110,Raw,T 14-15,,,107.5,,,,107.5,2
M,Al Fritz,HI,USA,B,36,110,Single-ply,Sub,,,230,,,,230,1
M,Mike Womack,CA,USA,B,,125,Single-ply,Jr,,,272.5,,,,272.5,1
M,Colin Bonneau,,Canada,B,57,125,Single-ply,LM 55-59,,,227.5,235,,,227.5,1
M,Tom Starkweather,CA,USA,B,43,125,Single-ply,M 40-44,,,220,,,,220,1
M,Colin Bonneau,,Canada,B,57,125,Single-ply,M 55-59,,,227.5,235,,,227.5,1
M,Collin Rhodes,NM,USA,B,37,125,Single-ply,Open,,,300,,,,300,1
M,Scott Hoekstra,CA,USA,B,38,125,Single-ply,Open,,,275,,,,275,2
M,Mike Womack,CA,USA,B,,125,Single-ply,Open,,,272.5,,,,272.5,3
M,Justin Ransbottom,OK,USA,B,,125,Single-ply,Open,,,245,,,,245,4
M,Jeff Fahrenbruch,AZ,USA,B,,125,Raw,Open,,,182.5,,,,182.5,1
M,Tom Starkweather,CA,USA,B,43,125,Raw,M 40-44,,,205,,,,205,1
M,Jeff Fahrenbruch,AZ,USA,B,,125,Raw,M 50-54,,,182.5,,,,182.5,1
M,Mike Adelman,NM,USA,B,40,140,Single-ply,M 40-44,,,255,,,,255,1
M,Richard Kahle,NM,USA,B,,140,Single-ply,Open,,,255,,,,255,1
M,Greg Payne,HI,USA,B,39,140,Raw,Sub,,,222.5,227.5,,,222.5,1
M,Salvador Ramirez,,Mexico,B,27,140+,Single-ply,Open,,,245,,,,245,1
M,Jeff Phiilips,,USA,B,44,140+,Raw,LM 40-44,,,190,,,,190,1
M,Peter Stephanides,,Slovakia,B,33,,Raw,Disabled,,,150,,,,150,1
M,Mario Gonzales,CA,USA,B,16,,Raw,T 16-17,,,,,,,,DQ
M,Zach Figueroa,,USA,D,,35,Raw,Y 10-11,,,,,60,,60,1
M,Patrick Marchesson,CA,USA,D,31,67.5,Raw,Open,,,,,182.5,,182.5,1
M,Steve Freides,NJ,USA,D,49,67.5,Raw,LM 45-49,,,,,157.5,,157.5,1
M,Steve Freides,NJ,USA,D,49,67.5,Raw,M 45-49,,,,,157.5,,157.5,1
M,Joseph Moon,CA,USA,D,13,67.5,Raw,Y 12-13,,,,,156,,156,1
M,Martin Montgomery,IN,USA,D,62,75,Single-ply,LM 60-64,,,,,,,,DQ
M,Jim Warner,OH,USA,D,48,75,Single-ply,M 45-49,,,,,,,,DQ
M,Martin Montgomery,IN,USA,D,62,75,Single-ply,M 60-64,,,,,,,,DQ
M,Jim Warner,OH,USA,D,48,75,Single-ply,Open,,,,,,,,DQ
M,James Mathews,CA,USA,D,70,75,Raw,LM 70-74,,,,,180,,180,1
M,Rich Branch,CA,USA,D,48,82.5,Single-ply,LM 45-49,,,,,227.5,228,227.5,1
M,Brad Weber,ND,USA,D,52,82.5,Single-ply,LM 50-54,,,,,232.5,,232.5,1
M,Stephen Montrose,FL,USA,D,87,82.5,Single-ply,LM 85-89,,,,,,,,DQ
M,Brad Weber,ND,USA,D,52,82.5,Single-ply,M 50-54,,,,,232.5,,232.5,1
M,Yogi Sumner,NC,USA,D,55,82.5,Raw,LM 55-59,,,,,150,,150,1
M,Bill Ennis,CA,USA,D,57,82.5,Raw,M 55-59,,,,,,,,DQ
M,Carlos Acosta,CA,USA,D,65,82.5,Raw,M 65-69,,,,,175,182.5,175,1
M,Jose Cabrera,,Puerto Rico,D,41,90,Single-ply,Life,,,,,250,,250,1
M,Tommy Williams,MD,USA,D,43,90,Raw,Life,,,,,290,,290,1
M,Tommy Williams,MD,USA,D,43,90,Raw,Open,,,,,290,,290,1
M,Tommy Williams,MD,USA,D,43,90,Raw,LM 40-44,,,,,290,,290,1
M,Herb Heald,TX,USA,D,54,90,Raw,LM 50-54,,,,,172.5,,172.5,1
M,Tommy Williams,MD,USA,D,43,90,Raw,M 40-44,,,,,290,,290,1
M,Herb Heald,TX,USA,D,54,90,Raw,M 50-54,,,,,172.5,,172.5,1
M,Bernabe De La Rosa,CA,USA,D,17,90,Raw,T 16-17,,,,,225,,225,1
M,Oscar Orengo,,Puerto Rico,D,33,100,Single-ply,Life,,,,,250,,250,1
M,Oswaldo Aguire,,Mexico,B,28,100,Single-ply,Open,,,205,,,,205,3
M,Oswaldo Aguire,,Mexico,BD,,100,Raw,Open,,,205,,300,,505,1
M,Martin Vogt,AZ,USA,D,60,100,Raw,LM 60-64,,,,,155,,155,1
M,John Dumont,CA,USA,D,60,110,Single-ply,M 60-64,,,,,245,,245,1
M,Luis Mendivil,,Mexico,BD,25,110,Single-ply,Open,,,190,,265,,455,1
M,Luis Mendivil,,Mexico,BD,25,110,Raw,Open,,,165,,260,,425,1
M,Steve Landry,CA,USA,D,,110,Single-ply,Sub,,,,,300,,300,1
M,Alan Nicol,UK,USA,D,57,125,Single-ply,Life,,,,,260,,260,1
M,Alan Nicol,UK,USA,D,57,125,Single-ply,LM 55-59,,,,,260,,260,1
M,Ryan Stewart,CA,USA,D,25,125,Raw,Open,,,,,257.5,,257.5,1
M,Alan Nicol,UK,USA,D,57,125,Raw,LM 55-59,,,,,260,,260,1
M,John Heldt,NV,USA,D,34,140,Raw,Open,,,,,250,,250,1
M,Chase Akina,HI,USA,SBD,9,35,Raw,Y 8-9,,,,,,,,DQ
M,Brad Williamson,OK,USA,SBD,15,52,Single-ply,T 14-15,,,,,,,,DQ
M,Glen Murphy,MD,USA,SBD,45,56,Single-ply,LM 45-49,137.5,,102.5,,140,,380,1
M,Michael Booker,CA,USA,SBD,22,56,Raw,Open,227.5,,165,,147.5,,540,1
M,Mark Grillo,CA,USA,SBD,15,56,Raw,T 14-15,92.5,,70,,100,,262.5,1
M,Nate Carlin,PA,USA,SBD,10,56,Raw,Y 10-11,60,,51,55,97.5,,208.5,1
M,Stephen Goldberg,AZ,USA,SBD,35,60,Single-ply,Life,135,,95,,172.5,,402.5,1
M,Mark Schultz,NV,USA,SBD,46,60,Raw,LM 45-49,100,,87.5,,160,,347.5,1
M,Gary Landess,IN,USA,SBD,51,60,Raw,LM 50-54,55,,72.5,,112.5,,240,1
M,Mark Schultz,NV,USA,SBD,46,60,Raw,M 45-49,100,,87.5,,160,,347.5,1
M,Gary Landess,IN,USA,SBD,51,60,Raw,M 50-54,55,,72.5,,112.5,,240,1
M,Taylor Johnson,PA,USA,SBD,15,60,Raw,T 14-15,125,,75,,100,,300,1
M,Thomas McCarty,MA,USA,SBD,47,67.5,Single-ply,LM 45-49,192.5,,132.5,140,215,,540,1
M,Terry Hedrick,TX,USA,SBD,47,67.5,Single-ply,LM 45-49,177.5,,125,,225,,527.5,2
M,Casey Brown,CO,USA,SBD,41,67.5,Single-ply,M 40-44,245,,140,,265,,650,1
M,Thomas McCarty,MA,USA,SBD,47,67.5,Single-ply,M 45-49,192.5,,132.5,140,215,,540,1
M,Thomas McCarty,MA,USA,SBD,47,67.5,Single-ply,Open,192.5,,132.5,140,215,,540,1
M,Jorge Ortega,,Mexico,SBD,32,67.5,Single-ply,Open,195,,120,,212.5,,527.5,3
M,Jorge Ortega,,Mexico,B,32,67.5,Single-ply,Open,,,120,,,,120,2
M,K.V.A.N. Chamara,,Sri Lanka,SBD,27,67.5,Single-ply,Open,,,,,,,,DQ
M,Ray Houle,Nh,USA,SBD,45,67.5,Raw,LM 45-49,140,,107.5,,140,,387.5,1
M,Steve Freides,Nj,USA,SBD,49,67.5,Raw,LM 45-49,110,,85,,157.5,,352.5,2
M,Ray Houle,Nh,USA,SBD,45,67.5,Raw,M 45-49,140,,107.5,,140,,387.5,1
M,Steve Freides,Nj,USA,SBD,49,67.5,Raw,M 45-49,110,,85,,157.5,,352.5,2
M,Jim Selby,CA,USA,SBD,75,67.5,Raw,M 75-79,67.5,,55,,112.5,,235,1
M,Armon Gutierez,CA,USA,SBD,17,67.5,Raw,T 16-17,140,,85,,192.5,,417.5,1
M,Armon Gutierez,CA,USA,SBD,17,67.5,Raw,T 16-17,140,,85,,192.5,,417.5,2
M,Jerry Uribe,CA,USA,SD,17,67.5,Raw,T 16-17,132.5,,,,125,,257.5,1
M,Joseph Moon,CA,USA,SD,13,67.5,Raw,Y 12-13,132.5,,,,156,,288.5,1
M,Kory Jones,TX,USA,SBD,18,75,Single-ply,HS 18-19,187.5,,115,,215,,517.5,1
M,Tim Houldcraft,MA,USA,SBD,21,75,Single-ply,Jr,182.5,,150,,182.5,,515,1
M,Michael Cox,TX,USA,SBD,40,75,Single-ply,Law/Mil,165,,165,,363.759,,,DQ
M,Mark Woodworth,OH,USA,SBD,42,75,Single-ply,LM 40-44,242.5,,157.5,,240,,640,1
M,Michael Cox,TX,USA,SBD,40,75,Single-ply,LM 40-44,165,,165,,363.759,,,DQ
M,Ron Scott,CA,USA,SBD,57,75,Single-ply,LM 55-59,190,,92.5,,210,212.5,492.5,1
M,Leon McCrary,MA,USA,SBD,67,75,Single-ply,LM 65-69,130,,60,,175,,365,1
M,Leon McCrary,MA,USA,SBD,67,75,Single-ply,M 65-69,130,,60,,175,,365,1
M,Gene Marshall,MA,USA,SBD,37,75,Single-ply,Open,267.5,,185,,255,,707.5,1
M,B.A.R.S. Premasinghe,,Sri Lanka,SBD,23,75,Single-ply,Open,,,,,,,,DQ
M,B.A.R.S. Premasinghe,,Sri Lanka,SBD,23,75,Single-ply,Open,,,,,,,,DQ
M,Robert Herbst,NY,USA,SBD,46,75,Raw,Life,137.5,,132.5,,210,,480,1
M,Aaron Benes,CA,USA,SBD,25,75,Raw,Open,150,,92.5,,200,,442.5,1
M,Robert Herbst,NY,USA,SBD,46,75,Raw,LM 45-49,137.5,,132.5,,210,,480,1
M,Robert Barth,NC,USA,SBD,43,75,Raw,M 40-44,152.5,,130,,212.5,,495,1
M,Robert Barth,NC,USA,SBD,43,75,Raw,M 40-44,152.5,,130,,212.5,,495,2
M,Robert Herbst,NY,USA,SBD,46,75,Raw,M 45-49,137.5,,132.5,,210,,480,1
M,Brandon Quinn,PA,USA,SBD,18,75,Raw,T 16-17,150,,115,,197.5,,462.5,1
M,Gene Marshall,MA,USA,SBD,37,75,Single-ply,Sub,267.5,,185,,255,,707.5,1
M,Shawn Wingert,MO,USA,SBD,36,75,Single-ply,Sub,160,,140,,205,,505,2
M,Ricky Lee Crain,OK,USA,SBD,15,75,Single-ply,T 14-15,157.5,,80,,160,,397.5,1
M,Brad Weber,ND,USA,SBD,52,82.5,Single-ply,Life,200,,133,,232.5,,565.5,1
M,Martin Drake,CA,USA,SBD,53,82.5,Single-ply,Life,65,,155.5,,65,,285.5,2
M,David Torrez,NM,USA,SBD,27,82.5,Single-ply,Life,,,,,,,,DQ
M,Terry Perkins,OH,USA,SBD,43,82.5,Single-ply,LM 40-44,282.5,,167.5,,245,,695,1
M,Rich Branch,CA,USA,SBD,48,82.5,Single-ply,LM 45-49,210,,152.5,,227.5,228,590,1
M,Brad Weber,ND,USA,SBD,52,82.5,Single-ply,LM 50-54,200,,133,,232.5,,565.5,1
M,Martin Drake,CA,USA,SBD,53,82.5,Single-ply,LM 50-54,65,,155.5,,65,,285.5,2
M,Steve Kylis,CA,USA,SBD,52,82.5,Single-ply,LM 50-54,,,,,,,,DQ
M,Steve Kylis,CA,USA,SBD,52,82.5,Single-ply,LM 50-54,,,,,,,,DQ
M,Stephen Montrose,FL,USA,SBD,87,82.5,Single-ply,LM 85-89,,,,,,,,DQ
M,Charles Peters,MA,USA,SBD,40,82.5,Single-ply,M 40-44,240,,167.5,,227.5,,635,1
M,Martin Drake,CA,USA,SBD,53,82.5,Single-ply,M 50-54,65,,155.5,,65,,285.5,1
M,Saul Baldaramo,,Mexico,SBD,32,82.5,Single-ply,Open,242.5,,165,,225,,632.5,1
M,E.A. Sampath,,Sri Lanka,SBD,21,82.5,Single-ply,Open,,,,,,,,DQ
M,E.A. Sampath,,Sri Lanka,SBD,21,82.5,Single-ply,Open,,,,,,,,DQ
M,Charles Stocking,CA,USA,SBD,24,82.5,Raw,Life,212.5,,130,,237.5,,580,1
M,Charles Stocking,CA,USA,SBD,24,82.5,Raw,Open,212.5,,130,,237.5,,580,1
M,Wille Wong,,Canada,SBD,43,82.5,Raw,LM 40-44,,,,,,,,DQ
M,Joe Formato,VA,USA,SBD,47,82.5,Raw,LM 45-49,162.5,,122.5,,207.5,,492.5,1
M,Martin Drake,CA,USA,SBD,53,82.5,Raw,LM 50-54,65,,140,141,65,,270,1
M,Yogi Sumner,NC,USA,SBD,55,82.5,Raw,LM 55-59,105,,115,120.5,150,,370,1
M,Wille Wong,,Canada,SBD,43,82.5,Raw,M 40-44,,,,,,,,DQ
M,Ted Hoffman,VA,USA,SBD,44,82.5,Raw,M 40-44,,,,,,,,DQ
M,Joe Formato,VA,USA,SBD,47,82.5,Raw,M 45-49,162.5,,122.5,,207.5,,492.5,1
M,Martin Drake,CA,USA,SBD,53,82.5,Raw,M 50-54,65,,140,141,65,,270,1
M,Luis Manera,CA,USA,SBD,17,82.5,Raw,T 16-17,145,,95,,182.5,,422.5,1
M,Jon Bailey,CA,USA,SBD,16,82.5,Raw,T 16-17,,,,,,,,DQ
M,Elliot Brandy,CA,USA,SBD,16,82.5,Raw,T 16-17,,,,,,,,DQ
M,Mike Peditto,PA,USA,SBD,16,82.5,Raw,T 16-17,,,,,,,,DQ
M,Dan Deuter,TX,USA,SBD,44,90,Single-ply,Law/Mil,192.5,,170,,205,,567.5,1
M,Kurt Matison,AR,USA,SBD,40,90,Single-ply,Law/Mil,,,,,,,,DQ
M,Jose Cabrera,,Puerto Rico,SBD,41,90,Single-ply,Life,217.5,,172.5,,250,,640,1
M,Dan Deuter,TX,USA,SBD,44,90,Single-ply,LM 40-44,192.5,,170,,205,,567.5,1
M,Jose Cabrera,,Puerto Rico,SD,41,90,Single-ply,LM 40-44,217.5,,,,250,,467.5,1
M,Dave Mansfield,MA,USA,SBD,58,90,Single-ply,LM 55-59,262.5,,135,,247.5,,645,1
M,Tim Fitzgibbon,AZ,USA,SBD,56,90,Single-ply,LM 55-59,175,,117.5,,192.5,,485,2
M,Kurt Matison,AR,USA,SBD,40,90,Single-ply,M 40-44,,,,,,,,DQ
M,Vonna Ray Baxter,TX,USA,SBD,46,90,Single-ply,M 45-49,272.5,,170,,265,,707.5,1
M,Eddie White,MO,USA,SBD,55,90,Single-ply,M 55-59,250,,167.5,,300,305,717.5,1
M,Dave Mansfield,MA,USA,SBD,58,90,Single-ply,M 55-59,262.5,,135,,247.5,,645,2
M,Tim Fitzgibbon,AZ,USA,SBD,56,90,Single-ply,M 55-59,175,,117.5,,192.5,,485,3
M,Gary Green,MD,USA,SBD,38,90,Single-ply,Open,265,,190,,267.5,280,722.5,1
M,Kurt Matison,AR,USA,SBD,40,90,Single-ply,Open,,,,,,,,DQ
M,Nate Rhoten,NC,USA,SBD,22,90,Raw,Jr,240,,157.5,,262.5,,660,1
M,Nate Rhoten,NC,USA,SBD,22,90,Raw,Open,240,,157.5,,262.5,,660,1
M,Tommy Williams,MD,USA,SBD,43,90,Raw,Open,205,,142.5,,290,,637.5,2
M,Wayne Pennell,NC,USA,SBD,35,90,Raw,Sub,235,,167.5,,265,,667.5,1
M,Tommy Williams,MD,USA,SBD,43,90,Raw,M 40-44,205,,142.5,,290,,637.5,1
M,Watson Davis,CA,USA,SBD,42,90,Raw,M 40-44,185,,97.5,,215,,497.5,2
M,Edwin Lewis,CA,USA,SBD,55,90,Raw,M 55-59,180,,100,,195,,475,1
M,Bernabe De La Rosa,CA,USA,SBD,17,90,Raw,T 16-17,182.5,,132.5,,225,,540,1
M,Job Hou-Sey,WI,USA,SBD,37,90,Single-ply,Sub,197.5,,147.5,,195,,540,1
M,Jon Weisman,AZ,USA,SBD,40,100,Single-ply,Law/Mil,277.5,,192.5,,275,,745,1
M,Dave Muro,CA,USA,SBD,34,100,Single-ply,Life,272.5,,177.5,,300,,750,1
M,Norm Judd,ND,USA,SBD,47,100,Single-ply,Life,255,,192.5,,255,,702.5,2
M,Oscar Orengo,,Puerto Rico,SBD,33,100,Single-ply,Life,265,,180,,250,,695,3
M,Norm Judd,ND,USA,SBD,47,100,Single-ply,LM 45-49,255,,192.5,,255,,702.5,1
M,Jon Weisman,AZ,USA,SBD,40,100,Single-ply,M 40-44,277.5,,192.5,,275,,745,1
M,Bob Evans #1,CA,USA,SBD,58,100,Single-ply,M 55-59,222.5,,182.5,,170,,575,1
M,William Leedy,CA,USA,SBD,74,100,Single-ply,M 70-74,170,,117.5,,215,,502.5,1
M,Joe Thompson,IA,USA,SBD,31,100,Single-ply,Open,305,,232.5,240,290,,827.5,1
M,Dave Muro,CA,USA,SBD,34,100,Single-ply,Open,271,,177.5,,300,,748.5,2
M,Oscar Orengo,,Puerto Rico,SBD,33,100,Single-ply,Open,265,,180,,250,,695,3
M,Cololo Ramirez,,Mexico,SBD,,100,Single-ply,Open,,,,,,,,DQ
M,Craig Hoffman,MA,USA,SBD,,100,Raw,Jr,200,,160,,245,,605,1
M,Ray DiBartolomeo,CA,USA,SBD,27,100,Raw,Life,248,,175,,260,,683,1
M,Ray DiBartolomeo,CA,USA,SBD,27,100,Raw,Open,248,,175,,260,,683,1
M,Wes Allen,CA,USA,SBD,31,100,Raw,Open,185,,120,,197.5,,502.5,2
M,Keith Mannies,CA,USA,SBD,31,100,Raw,Open,,,,,,,,DQ
M,Randy Cheatam,AZ,USA,B,43,100,Raw,LM 40-44,,,145,,,,145,3
M,Ed Berteaux,CA,USA,SBD,50,100,Raw,LM 50-54,190.5,,167.5,170,227.5,,585.5,1
M,Keith Hobman,,Canada,SBD,46,100,Raw,M 45-49,240,,162.5,,272.5,,675,1
M,Jack Rhoten,NC,USA,SBD,57,100,Raw,M 55-59,240,,150,,265,,655,1
M,Richard Digregorio,CA,USA,SBD,17,100,Raw,T 16-17,152.5,,105,,167.5,,425,1
M,Marco Garcia,CA,USA,SBD,16,100,Raw,T 16-17,142.5,,107.5,,160,,410,2
M,Shawn Ahoamana,CA,USA,SBD,17,100,Raw,T 16-17,,,,,,,,DQ
M,Andres Topchi,CA,USA,SBD,19,100,Raw,T 18-19,195,,192.5,,227.5,,615,1
M,Chris Anderson,NM,USA,SBD,17,100,Single-ply,T 16-17,227.5,240,187.5,,247.5,255,662.5,1
M,Kirk Karwoski,MD,USA,SBD,38,110,Raw,Guest,375,,210,,350,,935,G
M,Al Fritz,HI,USA,SBD,36,110,Single-ply,Law/Mil,320,,230,,287.5,,837.5,1
M,Jeff Blaine,IA,USA,SBD,28,110,Single-ply,Law/Mil,290,,175,,285,,750,2
M,Bobby Wilson,NC,USA,SBD,45,110,Single-ply,Life,302.5,,220,,300,,822.5,1
M,Rick Chavez,FL,USA,SBD,48,110,Single-ply,Life,320.5,,180,,257.5,,758,2
M,Mark Wilcox,MA,USA,SBD,41,110,Single-ply,Life,257.5,,172.5,,255,,685,3
M,Tracy Larson,ND,USA,SBD,38,110,Single-ply,Life,262.5,,172.5,,230,,665,4
M,Neil Eddins,TX,USA,SBD,41,110,Single-ply,LM 40-44,257.5,,210,,295,,762.5,1
M,Mark Wilcox,MA,USA,SBD,41,110,Single-ply,LM 40-44,257.5,,172.5,,255,,685,2
M,Bobby Wilson,NC,USA,SBD,45,110,Single-ply,LM 45-49,302.5,,220,,300,,822.5,1
M,Rick Chavez,FL,USA,SBD,48,110,Single-ply,LM 45-49,320.5,,180,,257.5,,758,2
M,Gary Clock,ND,USA,SBD,55,110,Single-ply,LM 55-59,247.5,,185,,250,,682.5,1
M,Bobby Wilson,NC,USA,SBD,45,110,Single-ply,M 45-49,302.5,,220,,300,,822.5,1
M,Rick Chavez,FL,USA,SBD,48,110,Single-ply,M 45-49,320.5,,180,,257.5,,758,2
M,Gary Clock,ND,USA,SBD,55,110,Single-ply,M 55-59,247.5,,185,,250,,682.5,1
M,Bill Helmick,NM,USA,SBD,62,110,Single-ply,M 60-64,220,,170,,252.5,,642.5,1
M,John Dumont,CA,USA,SBD,60,110,Single-ply,M 60-64,230,,60,,245,,535,2
M,Al Fritz,HI,USA,SBD,36,110,Single-ply,Open,320,,230,,287.5,,837.5,1
M,Rick Chavez,FL,USA,SBD,48,110,Single-ply,Open,320.5,,180,,257.5,,758,2
M,David Roman,CA,USA,SBD,49,110,Raw,Law/Mil,202.5,,160,,215,,577.5,1
M,Matt Rhoten,NC,USA,SBD,24,110,Raw,Life,252.5,,253,,,,,DQ
M,Mark Emerald,MA,USA,SBD,42,110,Raw,Open,192.5,,165,,217.5,,575,1
M,Matt Rhoten,NC,USA,SBD,24,110,Raw,Open,252.5,,253,,,,,DQ
M,Mark Emerald,MA,USA,SBD,42,110,Raw,LM 40-44,192.5,,165,,217.5,,575,1
M,Jack Rhoten,NC,USA,SBD,57,110,Raw,LM 55-59,240,,150,,265,,655,1
M,Mark Emerald,MA,USA,SBD,42,110,Raw,M 40-44,192.5,,165,,217.5,,575,1
M,Scott Hamilton,CA,USA,SBD,40,110,Raw,M 40-44,182.5,,165,,195,,542.5,2
M,David Roman,CA,USA,SBD,49,110,Raw,M 45-49,202.5,,160,,215,,577.5,1
M,Mark Bowne,PA,USA,SBD,15,110,Raw,T 14-15,102.5,,167.5,,200,205,470,1
M,Al Fritz,HI,USA,SBD,36,110,Single-ply,Sub,320,,230,,287.5,,837.5,1
M,Bob Brunner,ND,USA,SBD,22,125,Single-ply,Jr,232.5,,175,,275,,682.5,1
M,Bob Brunner,ND,USA,SBD,22,125,Single-ply,Life,232.5,,175,,275,,682.5,1
M,Sam Pektol,OR,USA,SBD,50,125,Single-ply,M 50-54,272.5,,217.5,,272.5,,762.5,1
M,Danny Herrera,CA,USA,SBD,67,125,Single-ply,M 65-69,227.5,,182.5,,220,,630,1
M,Robert Speno,CA,USA,SBD,35,125,Single-ply,Open,,,,,,,,DQ
M,Justin Ransbottom,OK,USA,SBD,,125,Single-ply,Open,325,,245,,322.5,,892.5,1
M,Emilio Paez,CA,USA,SBD,25,125,Raw,Life,260,,175,,260,,695,1
M,Emilio Paez,CA,USA,SBD,25,125,Raw,Open,260,,175,,260,,695,1
M,Roger Morton,AZ,USA,SBD,49,125,Raw,LM 45-49,185,,132.5,,210,,527.5,1
M,Jim Wagner,NV,USA,SBD,52,125,Raw,LM 50-54,210,,155,,200,,565,1
M,Shawn Shaffer,PA,USA,SBD,18,125,Raw,T 18-19,92.5,,65,,182.5,,340,1
M,Robert Speno,CA,USA,SBD,35,125,Single-ply,Sub,,,,,,,,DQ
M,Dan Driscoll,MA,USA,SBD,39,125,Single-ply,Sub,267.5,,187.5,,272.5,,727.5,1
M,Tracy Larson,ND,USA,SBD,38,125,Single-ply,Sub,262.5,,172.5,,230,,665,2
M,Richard Samarron,TX,USA,SBD,34,140,Single-ply,Life,285,,175,,282.5,,742.5,1
M,Paul Wrenn,TN,USA,SBD,57,140,Single-ply,M 55-59,260,,137,,272.5,,669.5,1
M,Richard Kahle,NM,USA,SBD,,140,Single-ply,Open,347.5,,255,,307.5,,910,1
M,Larry Larsen,MA,USA,SBD,58,140+,Single-ply,LM 55-59,182.5,,155,,210,,547.5,1
M,David Oyler,IL,USA,SBD,41,140+,Single-ply,M 40-44,320,,185,,290,,795,1
M,Larry Larsen,MA,USA,SBD,58,140+,Single-ply,M 55-59,182.5,,155,,210,,547.5,1
M,Salvador Ramirez,,Mexico,SBD,27,140+,Single-ply,Open,335,,245,,270,,850,1
M,Zeke Wilson,PA,USA,SBD,47,140+,Raw,M 45-49,,,,,,,,DQ
M,Ahunda Denkins,CA,USA,SBD,17,140+,Raw,T 16-17,145,,117.5,,157.5,,420,1
M,Scott Marcum,OH,USA,SBD,36,140+,Single-ply,Sub,322.5,,227.5,,295,,845,1
M,Kenyatta Ealey,CA,USA,BD,15,56,Raw,T 14-15,,,,,,,,DQ
M,Jorge Ortega,,Mexico,SBD,32,67.5,Single-ply,Open,195,,120,,212.5,,527.5,4
M,Jorge Ortega,,Mexico,BD,32,67.5,Single-ply,Open,,,120,,212.5,,332.5,1
M,Johnny Hoyt,CA,USA,BD,20,67.5,Raw,Jr,,,105,,150,,255,1
M,Mac Scott,AZ,USA,BD,52,67.5,Raw,LM 50-54,,,90,,140,,230,1
M,Jim Selby,CA,USA,BD,75,67.5,Raw,LM 75-79,,,55,,112.5,,167.5,1
M,Jim Selby,CA,USA,BD,75,67.5,Raw,M 75-79,,,55,,112.5,,167.5,1
M,Javier Vasquez,CA,USA,BD,15,67.5,Raw,T 14-15,,,,,,,,DQ
M,Aaron Horning,CA,USA,BD,15,67.5,Raw,T 16-17,,,77.5,,160,,237.5,1
M,Daniel Ramos,CA,USA,BD,17,67.5,Raw,T 16-17,,,,,,,,DQ
M,James Mathews,CA,USA,BD,70,75,Raw,LM 70-74,,,92.5,,180,,272.5,1
M,Ben Bauch,CA,USA,BD,17,75,Raw,T 16-17,,,95,,165,,260,1
M,Kevin Shaw,CA,USA,BD,,82.5,Single-ply,Life,,,170,,237.5,,407.5,1
M,Rich Branch,CA,USA,BD,48,82.5,Single-ply,LM 45-49,,,152.5,,227.5,228,380,1
M,Steve Kylis,CA,USA,BD,52,82.5,Single-ply,LM 50-54,,,,,,,,DQ
M,Steve Kylis,CA,USA,BD,52,82.5,Single-ply,LM 50-54,,,,,,,,DQ
M,Stephen Montrose,FL,USA,BD,87,82.5,Single-ply,LM 85-89,,,,,,,,DQ
M,Saul Baldaramo,,Mexico,BD,32,82.5,Single-ply,Open,,,165,,225,,390,1
M,Yogi Sumner,NC,USA,BD,55,82.5,Raw,LM 55-59,,,115,120.5,150,,265,1
M,Jerry Homer,AZ,USA,BD,64,82.5,Raw,LM 60-64,,,117.5,120,150,,267.5,1
M,Jim Naftel,CA,USA,BD,60,82.5,Raw,LM 60-64,,,80,,147.5,,227.5,2
M,Jim Naftel,CA,USA,BD,60,82.5,Raw,M 60-64,,,80,,147.5,,227.5,1
M,Carlos Acosta,CA,USA,BD,65,82.5,Raw,M 65-69,,,100,,175,182.5,275,1
M,Ryan Sanders,CA,USA,BD,18,82.5,Raw,T 18-19,,,110,,160,,270,1
M,Tommy Williams,MD,USA,BD,43,90,Raw,Open,,,142.5,,290,,432.5,1
M,Wayne Pennell,NC,USA,BD,35,90,Raw,Sub,,,167.5,,265,,432.5,1
M,Herb Heald,TX,USA,BD,54,90,Raw,LM 50-54,,,110,,172.5,,282.5,1
M,Tommy Williams,MD,USA,BD,43,90,Raw,M 40-44,,,142.5,,290,,432.5,1
M,Herb Heald,TX,USA,BD,54,90,Raw,M 50-54,,,110,,172.5,,282.5,1
M,Luis Hernandez,CA,USA,BD,15,90,Raw,T 14-15,,,105,,150,,255,1
M,Norm Lambert,,Canada,BD,53,100,Single-ply,LM 50-54,,,,,155,,,DQ
M,Norm Lambert,,Canada,BD,53,100,Single-ply,M 50-54,,,,,155,,,DQ
M,Jim Weiss,CA,USA,BD,77,100,Single-ply,M 75-79,,,80,,122.5,,202.5,1
M,Oswaldo Aguire,,Mexico,BD,28,100,Single-ply,Open,,,205,,300,,505,1
M,Oswaldo Aguire,,Mexico,BD,28,100,Single-ply,Open,,,205,,300,,505,2
M,Mark Mathews,CA,USA,BD,41,100,Raw,LM 40-44,,,175,,192.5,,367.5,1
M,Randy Cheatam,AZ,USA,BD,43,100,Raw,LM 40-44,,,145,,170,,315,2
M,Martin Vogt,AZ,USA,BD,60,100,Raw,LM 60-64,,,97.5,,155,,252.5,1
M,Neil Eddins,TX,USA,BD,41,110,Single-ply,LM 40-44,,,210,,295,,505,1
M,Gary Clock,ND,USA,BD,55,110,Single-ply,LM 55-59,,,185,,250,,435,1
M,Bill Helmick,CA,USA,BD,62,110,Single-ply,M 60-64,,,170,,252.5,,422.5,1
M,Luis Mendivil,,Mexico,BD,25,110,Single-ply,Open,,,190,,265,,455,2
M,Ramon Figueroa #2,CA,USA,BD,51,110,Raw,Law/Mil,,,155,,232.5,,387.5,1
M,Luis Mendivil,,Mexico,BD,25,110,Raw,Open,,,165,,260,,425,2
M,Brandon Blackwood,CA,USA,BD,36,110,Raw,Sub,,,140,,185,,325,1
M,Felipe Zepeda,CA,USA,BD,47,110,Raw,LM 45-49,,,,,,,,DQ
M,Gene Abernathy,CA,USA,BD,58,110,Raw,LM 55-59,,,145,,235,,380,1
M,Thomas Schade,CA,USA,BD,44,110,Raw,M 40-44,,,182.5,,282.5,,465,1
M,Mathew Edwards,CA,USA,BD,16,110,Raw,T 16-17,,,82.5,,172.5,,255,1
M,Bob Brunner,ND,USA,BD,22,125,Single-ply,Jr,,,175,,275,,450,1
M,Tom Allred,MI,USA,BD,40,125,Single-ply,Law/Mil,,,215,,265,,480,1
M,Tom Allred,MI,USA,BD,40,125,Single-ply,M 40-44,,,215,,265,,480,1
M,Dillon Jenkins,AZ,USA,BD,20,125,Raw,Jr,,,185,,260,,445,1
M,Jim Wagner,NV,USA,BD,52,125,Raw,LM 50-54,,,155,,200,,355,1
M,Richard Kahle,NM,USA,BD,,140,Single-ply,Life,,,255,,307.5,,562.5,1
M,Rick Dench,NM,USA,B,43,140,Single-ply,LM 40-44,,,185,,,,185,1
M,John Heldt,NV,USA,BD,34,140,Raw,Open,,,172.5,,250,,422.5,1
M,Salvador Ramirez,,Mexico,BD,27,140+,Single-ply,Open,,,245,,270,,515,1
M,Marlow Younan,CA,USA,B,17,,Raw,T 16-17,,,105,,,,105,1
M,Mario Gonzales,CA,USA,BD,16,,Raw,T 16-17,,,,,,,,DQ
